C:\Users\Me\workspace\WorldCreator\src\main\java\worldcreator\Main.java
C:\Users\Me\workspace\WorldCreator\src\main\java\worldcreator\CleanroomChunkGenerator.java
C:\Users\Me\workspace\WorldCreator\src\main\java\worldcreator\WorldHandler.java
